{
    "modules": [],
    "properties": {
        "backendModules": [],
        "description": "",
        "emConf": {
            "category": "plugin",
            "custom_category": "",
            "dependsOn": "typo3 => 6.2\n",
            "disableLocalization": false,
            "disableVersioning": false,
            "sourceLanguage": "en",
            "state": "alpha",
            "targetVersion": "6.2",
            "version": ""
        },
        "extensionKey": "audrating",
        "name": "Audibene Rating",
        "originalExtensionKey": "",
        "persons": [],
        "plugins": [],
        "vendorName": "AUDIBENE"
    },
    "wires": [],
    "log": {
        "last_modified": "2015-11-11 10:41",
        "extension_builder_version": "6.2.0",
        "be_user": " (1)"
    }
}